<?xml version="1.0" encoding="UTF-8"?>
<glyph name="Ccedilla" format="2">
	<advance width="901"/>
	<unicode hex="00C7"/>
	<outline>
		<component base="c"/>
		<component base="uni0327" xOffset="336"/>
	</outline>
</glyph>
