<?xml version="1.0" encoding="UTF-8"?>
<glyph name="G" format="2">
	<advance width="898"/>
	<unicode hex="0047"/>
	<outline>
		<contour>
			<point x="878" y="29" type="line"/>
			<point x="878" y="389" type="line"/>
			<point x="541" y="389" type="line"/>
			<point x="541" y="309" type="line"/>
			<point x="788" y="309" type="line"/>
			<point x="788" y="109" type="line"/>
			<point x="343" y="109" type="line" smooth="yes"/>
			<point x="295" y="109"/>
			<point x="209" y="147"/>
			<point x="145" y="213"/>
			<point x="110" y="299"/>
			<point x="110" y="348" type="qcurve" smooth="yes"/>
			<point x="110" y="397"/>
			<point x="145" y="484"/>
			<point x="209" y="548"/>
			<point x="295" y="587"/>
			<point x="343" y="587" type="qcurve" smooth="yes"/>
			<point x="555" y="587" type="line" smooth="yes"/>
			<point x="615" y="587"/>
			<point x="700" y="543"/>
			<point x="733" y="502" type="qcurve"/>
			<point x="848" y="502" type="line"/>
			<point x="848" y="667" type="line"/>
			<point x="758" y="667" type="line"/>
			<point x="758" y="594" type="line"/>
			<point x="691" y="641"/>
			<point x="610" y="667"/>
			<point x="555" y="667" type="qcurve" smooth="yes"/>
			<point x="343" y="667" type="line" smooth="yes"/>
			<point x="276" y="667"/>
			<point x="158" y="616"/>
			<point x="71" y="530"/>
			<point x="20" y="414"/>
			<point x="20" y="348" type="qcurve" smooth="yes"/>
			<point x="20" y="282"/>
			<point x="71" y="166"/>
			<point x="158" y="79"/>
			<point x="276" y="29"/>
			<point x="343" y="29" type="qcurve" smooth="yes"/>
		</contour>
	</outline>
</glyph>
