<?xml version="1.0" encoding="UTF-8"?>
<glyph name="idieresis" format="2">
	<advance width="402"/>
	<unicode hex="00EF"/>
	<outline>
		<component base="I"/>
		<component base="uni0308" xOffset="22"/>
	</outline>
</glyph>
