<?xml version="1.0" encoding="UTF-8"?>
<glyph name="periodcentered" format="2">
	<advance width="158"/>
	<unicode hex="00B7"/>
	<outline>
		<component base="period" yOffset="260"/>
	</outline>
</glyph>
