<?xml version="1.0" encoding="UTF-8"?>
<glyph name="R" format="2">
	<advance width="965"/>
	<unicode hex="0052"/>
	<outline>
		<contour>
			<point x="945" y="109" type="line"/>
			<point x="843" y="109" type="line"/>
			<point x="602" y="308" type="line"/>
			<point x="761" y="308" type="line" smooth="yes"/>
			<point x="799" y="308"/>
			<point x="867" y="337"/>
			<point x="916" y="385"/>
			<point x="945" y="450"/>
			<point x="945" y="488" type="qcurve" smooth="yes"/>
			<point x="945" y="525"/>
			<point x="916" y="590"/>
			<point x="867" y="639"/>
			<point x="799" y="668"/>
			<point x="761" y="668" type="qcurve" smooth="yes"/>
			<point x="20" y="668" type="line"/>
			<point x="20" y="588" type="line"/>
			<point x="131" y="588" type="line"/>
			<point x="131" y="109" type="line"/>
			<point x="20" y="109" type="line"/>
			<point x="20" y="29" type="line"/>
			<point x="388" y="29" type="line"/>
			<point x="388" y="109" type="line"/>
			<point x="221" y="109" type="line"/>
			<point x="221" y="308" type="line"/>
			<point x="461" y="308" type="line"/>
			<point x="702" y="109" type="line"/>
			<point x="529" y="109" type="line"/>
			<point x="529" y="29" type="line"/>
			<point x="945" y="29" type="line"/>
		</contour>
		<contour>
			<point x="855" y="437"/>
			<point x="809" y="388"/>
			<point x="761" y="388" type="qcurve" smooth="yes"/>
			<point x="221" y="388" type="line"/>
			<point x="221" y="588" type="line"/>
			<point x="761" y="588" type="line" smooth="yes"/>
			<point x="809" y="588"/>
			<point x="855" y="539"/>
			<point x="855" y="488" type="qcurve" smooth="yes"/>
		</contour>
	</outline>
</glyph>
