<?xml version="1.0" encoding="UTF-8"?>
<glyph name="uF2640" format="2">
	<advance width="680"/>
	<unicode hex="F2640"/>
	<outline>
		<contour>
			<point x="382" y="109" type="line"/>
			<point x="242" y="109" type="line"/>
			<point x="242" y="587" type="line"/>
			<point x="382" y="587" type="line"/>
			<point x="382" y="667" type="line"/>
			<point x="20" y="667" type="line"/>
			<point x="20" y="587" type="line"/>
			<point x="152" y="587" type="line"/>
			<point x="152" y="109" type="line"/>
			<point x="20" y="109" type="line"/>
			<point x="20" y="29" type="line"/>
			<point x="382" y="29" type="line"/>
		</contour>
		<contour>
			<point x="660" y="340" type="line"/>
			<point x="570" y="340" type="line"/>
			<point x="570" y="209" type="line"/>
			<point x="418" y="209" type="line"/>
			<point x="418" y="458" type="line"/>
			<point x="464" y="458" type="line"/>
			<point x="464" y="538" type="line"/>
			<point x="262" y="538" type="line"/>
			<point x="262" y="458" type="line"/>
			<point x="328" y="458" type="line"/>
			<point x="328" y="209" type="line"/>
			<point x="262" y="209" type="line"/>
			<point x="262" y="129" type="line"/>
			<point x="660" y="129" type="line"/>
		</contour>
	</outline>
</glyph>
