<?xml version="1.0" encoding="UTF-8"?>
<glyph name="uF4920" format="2">
	<advance width="1049"/>
	<unicode hex="F4920"/>
	<outline>
		<component base="uF4810"/>
		<component base="gravecomb" xOffset="501"/>
	</outline>
</glyph>
