<?xml version="1.0" encoding="UTF-8"?>
<glyph name="uF4710" format="2">
	<advance width="1674"/>
	<unicode hex="F4710"/>
	<outline>
		<contour>
			<point x="819" y="472" type="curve"/>
			<point x="805" y="441"/>
			<point x="797" y="408"/>
			<point x="794" y="373" type="curve"/>
			<point x="793" y="373"/>
			<point x="792" y="374"/>
			<point x="791" y="374" type="curve"/>
			<point x="768" y="384"/>
			<point x="744" y="389"/>
			<point x="719" y="389" type="curve"/>
			<point x="204" y="389" type="line"/>
			<point x="172" y="389"/>
			<point x="148" y="397"/>
			<point x="133" y="413" type="curve"/>
			<point x="118" y="429"/>
			<point x="110" y="454"/>
			<point x="110" y="488" type="curve"/>
			<point x="110" y="522"/>
			<point x="118" y="547"/>
			<point x="133" y="563" type="curve"/>
			<point x="148" y="580"/>
			<point x="172" y="588"/>
			<point x="204" y="588" type="curve"/>
			<point x="903" y="588" type="line"/>
			<point x="898" y="583"/>
			<point x="893" y="578"/>
			<point x="888" y="573" type="curve"/>
			<point x="859" y="544"/>
			<point x="836" y="510"/>
		</contour>
		<contour>
			<point x="950" y="516" type="curve"/>
			<point x="971" y="538"/>
			<point x="996" y="555"/>
			<point x="1025" y="568" type="curve"/>
			<point x="1054" y="581"/>
			<point x="1103" y="587"/>
			<point x="1338" y="586" type="curve"/>
			<point x="1366" y="586"/>
			<point x="1391" y="583"/>
			<point x="1413" y="578" type="curve"/>
			<point x="1435" y="572"/>
			<point x="1455" y="564"/>
			<point x="1473" y="552" type="curve"/>
			<point x="1490" y="540"/>
			<point x="1506" y="524"/>
			<point x="1519" y="505" type="curve"/>
			<point x="1532" y="486"/>
			<point x="1541" y="467"/>
			<point x="1544" y="447" type="curve"/>
			<point x="1654" y="447" type="line"/>
			<point x="1654" y="667" type="line"/>
			<point x="1564" y="667" type="line"/>
			<point x="1564" y="581" type="line"/>
			<point x="1519" y="617"/>
			<point x="1480" y="640"/>
			<point x="1447" y="651" type="curve"/>
			<point x="1414" y="662"/>
			<point x="1377" y="668"/>
			<point x="1338" y="668" type="curve"/>
			<point x="204" y="668" type="line"/>
			<point x="179" y="668"/>
			<point x="155" y="663"/>
			<point x="132" y="653" type="curve"/>
			<point x="109" y="644"/>
			<point x="90" y="631"/>
			<point x="74" y="614" type="curve"/>
			<point x="57" y="598"/>
			<point x="44" y="579"/>
			<point x="35" y="557" type="curve"/>
			<point x="25" y="536"/>
			<point x="20" y="512"/>
			<point x="20" y="488" type="curve"/>
			<point x="20" y="450"/>
			<point x="30" y="417"/>
			<point x="51" y="387" type="curve"/>
			<point x="71" y="358"/>
			<point x="98" y="336"/>
			<point x="131" y="322" type="curve"/>
			<point x="153" y="313"/>
			<point x="177" y="309"/>
			<point x="204" y="309" type="curve"/>
			<point x="719" y="309" type="line"/>
			<point x="751" y="309"/>
			<point x="775" y="301"/>
			<point x="790" y="284" type="curve"/>
			<point x="805" y="268"/>
			<point x="813" y="243"/>
			<point x="813" y="209" type="curve"/>
			<point x="813" y="175"/>
			<point x="805" y="150"/>
			<point x="790" y="134" type="curve"/>
			<point x="775" y="118"/>
			<point x="751" y="110"/>
			<point x="719" y="110" type="curve"/>
			<point x="287" y="110" type="line"/>
			<point x="262" y="110"/>
			<point x="239" y="115"/>
			<point x="218" y="124" type="curve"/>
			<point x="196" y="134"/>
			<point x="177" y="147"/>
			<point x="161" y="164" type="curve"/>
			<point x="145" y="181"/>
			<point x="132" y="201"/>
			<point x="123" y="222" type="curve"/>
			<point x="114" y="244"/>
			<point x="109" y="262"/>
			<point x="109" y="278" type="curve"/>
			<point x="20" y="278" type="line"/>
			<point x="20" y="30" type="line"/>
			<point x="110" y="30" type="line"/>
			<point x="110" y="93" type="line"/>
			<point x="150" y="66"/>
			<point x="182" y="49"/>
			<point x="206" y="41" type="curve"/>
			<point x="229" y="34"/>
			<point x="256" y="30"/>
			<point x="287" y="30" type="curve"/>
			<point x="719" y="30" type="line"/>
			<point x="744" y="30"/>
			<point x="768" y="35"/>
			<point x="791" y="44" type="curve"/>
			<point x="814" y="54"/>
			<point x="833" y="67"/>
			<point x="850" y="83" type="curve"/>
			<point x="863" y="96"/>
			<point x="874" y="111"/>
			<point x="883" y="128" type="curve"/>
			<point x="885" y="126"/>
			<point x="886" y="125"/>
			<point x="888" y="123" type="curve"/>
			<point x="917" y="94"/>
			<point x="951" y="71"/>
			<point x="990" y="55" type="curve"/>
			<point x="1029" y="38"/>
			<point x="1071" y="30"/>
			<point x="1116" y="30" type="curve"/>
			<point x="1634" y="30" type="line"/>
			<point x="1634" y="273" type="line"/>
			<point x="1544" y="273" type="line"/>
			<point x="1544" y="110" type="line"/>
			<point x="1116" y="110" type="line"/>
			<point x="1084" y="110"/>
			<point x="1054" y="116"/>
			<point x="1025" y="129" type="curve"/>
			<point x="996" y="141"/>
			<point x="971" y="158"/>
			<point x="950" y="180" type="curve"/>
			<point x="929" y="201"/>
			<point x="912" y="226"/>
			<point x="901" y="255" type="curve"/>
			<point x="889" y="284"/>
			<point x="883" y="315"/>
			<point x="883" y="348" type="curve"/>
			<point x="883" y="380"/>
			<point x="889" y="411"/>
			<point x="901" y="440" type="curve"/>
			<point x="912" y="468"/>
			<point x="929" y="494"/>
		</contour>
	</outline>
</glyph>
