<?xml version="1.0" encoding="UTF-8"?>
<glyph name="F" format="2">
	<advance width="875"/>
	<outline>
		<contour>
			<point x="855" y="667" type="line"/>
			<point x="20" y="667" type="line"/>
			<point x="20" y="586" type="line"/>
			<point x="132" y="586" type="line"/>
			<point x="132" y="110" type="line"/>
			<point x="20" y="110" type="line"/>
			<point x="20" y="29" type="line"/>
			<point x="332" y="29" type="line"/>
			<point x="332" y="110" type="line"/>
			<point x="221" y="110" type="line"/>
			<point x="221" y="307" type="line"/>
			<point x="493" y="307" type="line"/>
			<point x="493" y="187" type="line"/>
			<point x="583" y="187" type="line"/>
			<point x="583" y="520" type="line"/>
			<point x="493" y="520" type="line"/>
			<point x="493" y="389" type="line"/>
			<point x="221" y="389" type="line"/>
			<point x="221" y="586" type="line"/>
			<point x="766" y="586" type="line"/>
			<point x="766" y="435" type="line"/>
			<point x="855" y="435" type="line"/>
		</contour>
	</outline>
</glyph>
